Lecture 15
…
```
## 
## ℹ Use `spec()` to retrieve the full column specification for this data.
## ℹ Specify the column types or set `show_col_types = FALSE` to quiet this message.
```

```r
trip_data
```

```
## # A tibble: 2,600 × 7
##    house_num  site trips income travel_cost travel_cost_other water_clarity
##        <dbl> <dbl> <dbl>  <dbl>       <dbl>             <dbl>         <dbl>
##  1         1     1     4 40450.       38.9              16.4          0.506
##  2         2     1     5 60304.       29.8              37.5          0.506
##  3         3     1     5 66681.       42.2              67.2          0.506
##  4         4     1     5 52886.       11.0              51.3          0.506
##  5         5     1     5 69282.       15.7               7.72         0.506
##  6         6     1     5 36948.        4.30             48.0          0.506
##  7         7     1     6 60866.        5.31             91.0          0.506
##  8         8     1     5 35557.       65.0             161.           0.506
##  9         9     1     5 64880.       14.5              24.3          0.506
## 10        10     1     4 38491.       13.6              26.5          0.506
## # … with 2,590 more rows
```
…
---

# First stage estimation

```r
site_estimates
```

```
## # A tibble: 26 × 5
##    intercept own_price cross_price    income  site
##        <dbl>     <dbl>       <dbl>     <dbl> <dbl>
##  1     2.99   -0.0161      0.0106  0.0000321     1
##  2     2.45   -0.0117      0.0101  0.0000397     2
##  3     2.37   -0.0197      0.0111  0.0000450     3
##  4     2.33   -0.0187      0.0119  0.0000438     4
##  5     2.05   -0.0143      0.0139  0.0000450     5
##  6    -0.236  -0.00668     0.00972 0.0000321     6
##  7     2.67   -0.0210      0.0118  0.0000395     7
##  8    -0.346  -0.00395     0.00987 0.0000324     8
##  9     2.98   -0.0133      0.0107  0.0000315     9
## 10    -0.103  -0.00943     0.0105  0.0000302    10
## # … with 16 more rows
```
…
```
## Joining, by = "site"
```

```r
estimation_df
```

```
## # A tibble: 26 × 6
##    intercept own_price cross_price    income  site water_clarity
##        <dbl>     <dbl>       <dbl>     <dbl> <dbl>         <dbl>
##  1     2.99   -0.0161      0.0106  0.0000321     1         0.506
##  2     2.45   -0.0117      0.0101  0.0000397     2         0.503
##  3     2.37   -0.0197      0.0111  0.0000450     3         0.515
##  4     2.33   -0.0187      0.0119  0.0000438     4         0.515
##  5     2.05   -0.0143      0.0139  0.0000450     5         0.515
##  6    -0.236  -0.00668     0.00972 0.0000321     6         0.481
##  7     2.67   -0.0210      0.0118  0.0000395     7         0.539
##  8    -0.346  -0.00395     0.00987 0.0000324     8         0.482
##  9     2.98   -0.0133      0.0107  0.0000315     9         0.530
## 10    -0.103  -0.00943     0.0105  0.0000302    10         0.467
## # … with 16 more rows
```
…
