Lecture 9
…
# Pipes: %>%

The pipe operator `%>%` lets us perform a sequence of operations in a very nice and tidy way

--

Suppose we wanted to figure out the average highway miles per gallon of Audi's in the `mpg` dataset:

```r
mpg
```

```
## # A tibble: 234 x 11
##    manufacturer model      displ  year   cyl trans      drv     cty   hwy fl    class  
##    <chr>        <chr>      <dbl> <int> <int> <chr>      <chr> <int> <int> <chr> <chr>  
##  1 audi         a4           1.8  1999     4 auto(l5)   f        18    29 p     compact
##  2 audi         a4           1.8  1999     4 manual(m5) f        21    29 p     compact
##  3 audi         a4           2    2008     4 manual(m6) f        20    31 p     compact
##  4 audi         a4           2    2008     4 auto(av)   f        21    30 p     compact
##  5 audi         a4           2.8  1999     6 auto(l5)   f        16    26 p     compact
##  6 audi         a4           2.8  1999     6 manual(m5) f        18    26 p     compact
##  7 audi         a4           3.1  2008     6 auto(av)   f        18    27 p     compact
##  8 audi         a4 quattro   1.8  1999     4 manual(m5) 4        18    26 p     compact
##  9 audi         a4 quattro   1.8  1999     4 auto(l5)   4        16    25 p     compact
## 10 audi         a4 quattro   2    2008     4 manual(m6) 4        20    28 p     compact
## # … with 224 more rows
```
…
Let's practice these commands together using the `starwars` data frame that comes pre-packaged with dplyr

---

# Starwars

Here's the `starwars` dataset, it has 87 observations of 14 variables

```r
starwars 
```

```
## # A tibble: 87 x 14
##    name  height  mass hair_color skin_color eye_color birth_year sex   gender homeworld species films
##    <chr>  <int> <dbl> <chr>      <chr>      <chr>          <dbl> <chr> <chr>  <chr>     <chr>   <lis>
##  1 Luke…    172    77 blond      fair       blue            19   male  mascu… Tatooine  Human   <chr…
##  2 C-3PO    167    75 <NA>       gold       yellow         112   none  mascu… Tatooine  Droid   <chr…
##  3 R2-D2     96    32 <NA>       white, bl… red             33   none  mascu… Naboo     Droid   <chr…
##  4 Dart…    202   136 none       white      yellow          41.9 male  mascu… Tatooine  Human   <chr…
##  5 Leia…    150    49 brown      light      brown           19   fema… femin… Alderaan  Human   <chr…
##  6 Owen…    178   120 brown, gr… light      blue            52   male  mascu… Tatooine  Human   <chr…
##  7 Beru…    165    75 brown      light      blue            47   fema… femin… Tatooine  Human   <chr…
##  8 R5-D4     97    32 <NA>       white, red red             NA   none  mascu… Tatooine  Droid   <chr…
##  9 Bigg…    183    84 black      light      brown           24   male  mascu… Tatooine  Human   <chr…
## 10 Obi-…    182    77 auburn, w… fair       blue-gray       57   male  mascu… Stewjon   Human   <chr…
## # … with 77 more rows, and 2 more variables: vehicles <list>, starships <list>
```
…
---

# 1) dplyr::filter

To remove missing observations, use negation:

```r
starwars %>% 
  filter(!is.na(height))
```

```
## # A tibble: 81 x 14
##    name  height  mass hair_color skin_color eye_color birth_year sex   gender homeworld species films
##    <chr>  <int> <dbl> <chr>      <chr>      <chr>          <dbl> <chr> <chr>  <chr>     <chr>   <lis>
##  1 Luke…    172    77 blond      fair       blue            19   male  mascu… Tatooine  Human   <chr…
##  2 C-3PO    167    75 <NA>       gold       yellow         112   none  mascu… Tatooine  Droid   <chr…
##  3 R2-D2     96    32 <NA>       white, bl… red             33   none  mascu… Naboo     Droid   <chr…
##  4 Dart…    202   136 none       white      yellow          41.9 male  mascu… Tatooine  Human   <chr…
##  5 Leia…    150    49 brown      light      brown           19   fema… femin… Alderaan  Human   <chr…
##  6 Owen…    178   120 brown, gr… light      blue            52   male  mascu… Tatooine  Human   <chr…
##  7 Beru…    165    75 brown      light      blue            47   fema… femin… Tatooine  Human   <chr…
##  8 R5-D4     97    32 <NA>       white, red red             NA   none  mascu… Tatooine  Droid   <chr…
##  9 Bigg…    183    84 black      light      brown           24   male  mascu… Tatooine  Human   <chr…
## 10 Obi-…    182    77 auburn, w… fair       blue-gray       57   male  mascu… Stewjon   Human   <chr…
## # … with 71 more rows, and 2 more variables: vehicles <list>, starships <list>
```

---

# 2) dplyr::arrange

`arrange` sorts the data frame based on the variables you supply:

```r
starwars %>% 
  arrange(birth_year)
```

```
## # A tibble: 87 x 14
##    name  height  mass hair_color skin_color eye_color birth_year sex   gender homeworld species films
##    <chr>  <int> <dbl> <chr>      <chr>      <chr>          <dbl> <chr> <chr>  <chr>     <chr>   <lis>
##  1 Wick…     88  20   brown      brown      brown            8   male  mascu… Endor     Ewok    <chr…
##  2 IG-88    200 140   none       metal      red             15   none  mascu… <NA>      Droid   <chr…
##  3 Luke…    172  77   blond      fair       blue            19   male  mascu… Tatooine  Human   <chr…
##  4 Leia…    150  49   brown      light      brown           19   fema… femin… Alderaan  Human   <chr…
##  5 Wedg…    170  77   brown      fair       hazel           21   male  mascu… Corellia  Human   <chr…
##  6 Plo …    188  80   none       orange     black           22   male  mascu… Dorin     Kel Dor <chr…
##  7 Bigg…    183  84   black      light      brown           24   male  mascu… Tatooine  Human   <chr…
##  8 Han …    180  80   brown      fair       brown           29   male  mascu… Corellia  Human   <chr…
##  9 Land…    177  79   black      dark       brown           31   male  mascu… Socorro   Human   <chr…
## 10 Boba…    183  78.2 black      fair       brown           31.5 male  mascu… Kamino    Human   <chr…
## # … with 77 more rows, and 2 more variables: vehicles <list>, starships <list>
```

---

# 2) dplyr::arrange

We can also arrange items in descending order using `arrange(desc())`

```r
starwars %>% 
  arrange(desc(birth_year))
```

```
## # A tibble: 87 x 14
##    name  height  mass hair_color skin_color eye_color birth_year sex   gender homeworld species films
##    <chr>  <int> <dbl> <chr>      <chr>      <chr>          <dbl> <chr> <chr>  <chr>     <chr>   <lis>
##  1 Yoda      66    17 white      green      brown            896 male  mascu… <NA>      Yoda's… <chr…
##  2 Jabb…    175  1358 <NA>       green-tan… orange           600 herm… mascu… Nal Hutta Hutt    <chr…
##  3 Chew…    228   112 brown      unknown    blue             200 male  mascu… Kashyyyk  Wookiee <chr…
##  4 C-3PO    167    75 <NA>       gold       yellow           112 none  mascu… Tatooine  Droid   <chr…
##  5 Dooku    193    80 white      fair       brown            102 male  mascu… Serenno   Human   <chr…
##  6 Qui-…    193    89 brown      fair       blue              92 male  mascu… <NA>      Human   <chr…
##  7 Ki-A…    198    82 white      pale       yellow            92 male  mascu… Cerea     Cerean  <chr…
##  8 Fini…    170    NA blond      fair       blue              91 male  mascu… Coruscant Human   <chr…
##  9 Palp…    170    75 grey       pale       yellow            82 male  mascu… Naboo     Human   <chr…
## 10 Clie…    183    NA brown      fair       blue              82 male  mascu… Tatooine  Human   <chr…
## # … with 77 more rows, and 2 more variables: vehicles <list>, starships <list>
```

---

# 3) dplyr::select

Use commas to select multiple columns out of a data frame, deselect a column with "-", select across multiple columns with "first:last":

```r
starwars %>% 
  select(name:skin_color, species, -height)
```

```
## # A tibble: 87 x 5
##    name                mass hair_color    skin_color  species
##    <chr>              <dbl> <chr>         <chr>       <chr>  
##  1 Luke Skywalker        77 blond         fair        Human  
##  2 C-3PO                 75 <NA>          gold        Droid  
##  3 R2-D2                 32 <NA>          white, blue Droid  
##  4 Darth Vader          136 none          white       Human  
##  5 Leia Organa           49 brown         light       Human  
##  6 Owen Lars            120 brown, grey   light       Human  
##  7 Beru Whitesun lars    75 brown         light       Human  
##  8 R5-D4                 32 <NA>          white, red  Droid  
##  9 Biggs Darklighter     84 black         light       Human  
## 10 Obi-Wan Kenobi        77 auburn, white fair        Human  
## # … with 77 more rows
```

---

# 3) dplyr::select 

You can also rename your selected variables in place

```r
starwars %>%
  select(alias = name, crib = homeworld) 
```

```
## # A tibble: 87 x 2
##    alias              crib    
##    <chr>              <chr>   
##  1 Luke Skywalker     Tatooine
##  2 C-3PO              Tatooine
##  3 R2-D2              Naboo   
##  4 Darth Vader        Tatooine
##  5 Leia Organa        Alderaan
##  6 Owen Lars          Tatooine
##  7 Beru Whitesun lars Tatooine
##  8 R5-D4              Tatooine
##  9 Biggs Darklighter  Tatooine
## 10 Obi-Wan Kenobi     Stewjon 
## # … with 77 more rows
```

---

# 3) dplyr::select 

If you just want to rename columns without subsetting them, you can use `rename`:

```r
starwars %>%
  rename(alias = name, crib = homeworld) 
```

```
## # A tibble: 87 x 14
##    alias height  mass hair_color skin_color eye_color birth_year sex   gender crib  species films vehicles
##    <chr>  <int> <dbl> <chr>      <chr>      <chr>          <dbl> <chr> <chr>  <chr> <chr>   <lis> <list>  
##  1 Luke…    172    77 blond      fair       blue            19   male  mascu… Tato… Human   <chr… <chr [2…
##  2 C-3PO    167    75 <NA>       gold       yellow         112   none  mascu… Tato… Droid   <chr… <chr [0…
##  3 R2-D2     96    32 <NA>       white, bl… red             33   none  mascu… Naboo Droid   <chr… <chr [0…
##  4 Dart…    202   136 none       white      yellow          41.9 male  mascu… Tato… Human   <chr… <chr [0…
##  5 Leia…    150    49 brown      light      brown           19   fema… femin… Alde… Human   <chr… <chr [1…
##  6 Owen…    178   120 brown, gr… light      blue            52   male  mascu… Tato… Human   <chr… <chr [0…
##  7 Beru…    165    75 brown      light      blue            47   fema… femin… Tato… Human   <chr… <chr [0…
##  8 R5-D4     97    32 <NA>       white, red red             NA   none  mascu… Tato… Droid   <chr… <chr [0…
##  9 Bigg…    183    84 black      light      brown           24   male  mascu… Tato… Human   <chr… <chr [0…
## 10 Obi-…    182    77 auburn, w… fair       blue-gray       57   male  mascu… Stew… Human   <chr… <chr [1…
## # … with 77 more rows, and 1 more variable: starships <list>
```

---

# 3) dplyr::select *cont.*

The `select(contains(PATTERN))` option provides a nice shortcut in relevant cases.

```r
starwars %>% 
  select(name, contains("color"))
```

```
## # A tibble: 87 x 4
##    name               hair_color    skin_color  eye_color
##    <chr>              <chr>         <chr>       <chr>    
##  1 Luke Skywalker     blond         fair        blue     
##  2 C-3PO              <NA>          gold        yellow   
##  3 R2-D2              <NA>          white, blue red      
##  4 Darth Vader        none          white       yellow   
##  5 Leia Organa        brown         light       brown    
##  6 Owen Lars          brown, grey   light       blue     
##  7 Beru Whitesun lars brown         light       blue     
##  8 R5-D4              <NA>          white, red  red      
##  9 Biggs Darklighter  black         light       brown    
## 10 Obi-Wan Kenobi     auburn, white fair        blue-gray
## # … with 77 more rows
```
…
---

# 4) dplyr::mutate

You can create new columns from scratch as transformations of existing columns:

```r
starwars %>% 
  select(name, birth_year) %>%
  mutate(dog_years = birth_year * 7) %>%
  mutate(comment = paste0(name, " is ", dog_years, " in dog years."))
```

```
## # A tibble: 87 x 4
##    name               birth_year dog_years comment                                
##    <chr>                   <dbl>     <dbl> <chr>                                  
##  1 Luke Skywalker           19        133  Luke Skywalker is 133 in dog years.    
##  2 C-3PO                   112        784  C-3PO is 784 in dog years.             
##  3 R2-D2                    33        231  R2-D2 is 231 in dog years.             
##  4 Darth Vader              41.9      293. Darth Vader is 293.3 in dog years.     
##  5 Leia Organa              19        133  Leia Organa is 133 in dog years.       
##  6 Owen Lars                52        364  Owen Lars is 364 in dog years.         
##  7 Beru Whitesun lars       47        329  Beru Whitesun lars is 329 in dog years.
##  8 R5-D4                    NA         NA  R5-D4 is NA in dog years.              
##  9 Biggs Darklighter        24        168  Biggs Darklighter is 168 in dog years. 
## 10 Obi-Wan Kenobi           57        399  Obi-Wan Kenobi is 399 in dog years.    
## # … with 77 more rows
```
…
# 4) dplyr::mutate 

*Note:* `mutate` creates variables in order, so you can chain multiple mutates in a single call

```r
starwars %>% 
  select(name, birth_year) %>%
  mutate(
    dog_years = birth_year * 7, ## Separate with a comma
    comment = paste0(name, " is ", dog_years, " in dog years.")
    )
```

```
## # A tibble: 87 x 4
##    name               birth_year dog_years comment                                
##    <chr>                   <dbl>     <dbl> <chr>                                  
##  1 Luke Skywalker           19        133  Luke Skywalker is 133 in dog years.    
##  2 C-3PO                   112        784  C-3PO is 784 in dog years.             
##  3 R2-D2                    33        231  R2-D2 is 231 in dog years.             
##  4 Darth Vader              41.9      293. Darth Vader is 293.3 in dog years.     
##  5 Leia Organa              19        133  Leia Organa is 133 in dog years.       
##  6 Owen Lars                52        364  Owen Lars is 364 in dog years.         
##  7 Beru Whitesun lars       47        329  Beru Whitesun lars is 329 in dog years.
##  8 R5-D4                    NA         NA  R5-D4 is NA in dog years.              
##  9 Biggs Darklighter        24        168  Biggs Darklighter is 168 in dog years. 
## 10 Obi-Wan Kenobi           57        399  Obi-Wan Kenobi is 399 in dog years.    
## # … with 77 more rows
```
…
---

# 5) dplyr::summarise

Summarising useful in combination with the `group_by` command

```r
starwars %>% 
  group_by(species, gender) %>% # for each species-gender combo
  summarise(mean_height = mean(height, na.rm = TRUE)) # calculate the mean height
```

```
## # A tibble: 42 x 3
## # Groups:   species [38]
##    species   gender    mean_height
##    <chr>     <chr>           <dbl>
##  1 Aleena    masculine          79
##  2 Besalisk  masculine         198
##  3 Cerean    masculine         198
##  4 Chagrian  masculine         196
##  5 Clawdite  feminine          168
##  6 Droid     feminine           96
##  7 Droid     masculine         140
##  8 Dug       masculine         112
##  9 Ewok      masculine          88
## 10 Geonosian masculine         183
## # … with 32 more rows
```
…
(You can visualize the operations [here](https://r4ds.had.co.nz/relational-data.html)

---

# dplyr::xxxx_join

Lets use the data that comes with the the [nycflights13](http://github.com/hadley/nycflights13) package. 

```r
library(nycflights13)
flights 
```

```
## # A tibble: 336,776 x 19
##     year month   day dep_time sched_dep_time dep_delay arr_time sched_arr_time arr_delay carrier flight
##    <int> <int> <int>    <int>          <int>     <dbl>    <int>          <int>     <dbl> <chr>    <int>
##  1  2013     1     1      517            515         2      830            819        11 UA        1545
##  2  2013     1     1      533            529         4      850            830        20 UA        1714
##  3  2013     1     1      542            540         2      923            850        33 AA        1141
##  4  2013     1     1      544            545        -1     1004           1022       -18 B6         725
##  5  2013     1     1      554            600        -6      812            837       -25 DL         461
##  6  2013     1     1      554            558        -4      740            728        12 UA        1696
##  7  2013     1     1      555            600        -5      913            854        19 B6         507
##  8  2013     1     1      557            600        -3      709            723       -14 EV        5708
##  9  2013     1     1      557            600        -3      838            846        -8 B6          79
## 10  2013     1     1      558            600        -2      753            745         8 AA         301
## # … with 336,766 more rows, and 8 more variables: tailnum <chr>, origin <chr>, dest <chr>, air_time <dbl>,
## #   distance <dbl>, hour <dbl>, minute <dbl>, time_hour <dttm>
```

---

# dplyr::xxxx_join

```r
planes
```

```
## # A tibble: 3,322 x 9
##    tailnum  year type                    manufacturer     model     engines seats speed engine   
##    <chr>   <int> <chr>                   <chr>            <chr>       <int> <int> <int> <chr>    
##  1 N10156   2004 Fixed wing multi engine EMBRAER          EMB-145XR       2    55    NA Turbo-fan
##  2 N102UW   1998 Fixed wing multi engine AIRBUS INDUSTRIE A320-214        2   182    NA Turbo-fan
##  3 N103US   1999 Fixed wing multi engine AIRBUS INDUSTRIE A320-214        2   182    NA Turbo-fan
##  4 N104UW   1999 Fixed wing multi engine AIRBUS INDUSTRIE A320-214        2   182    NA Turbo-fan
##  5 N10575   2002 Fixed wing multi engine EMBRAER          EMB-145LR       2    55    NA Turbo-fan
##  6 N105UW   1999 Fixed wing multi engine AIRBUS INDUSTRIE A320-214        2   182    NA Turbo-fan
##  7 N107US   1999 Fixed wing multi engine AIRBUS INDUSTRIE A320-214        2   182    NA Turbo-fan
##  8 N108UW   1999 Fixed wing multi engine AIRBUS INDUSTRIE A320-214        2   182    NA Turbo-fan
##  9 N109UW   1999 Fixed wing multi engine AIRBUS INDUSTRIE A320-214        2   182    NA Turbo-fan
## 10 N110UW   1999 Fixed wing multi engine AIRBUS INDUSTRIE A320-214        2   182    NA Turbo-fan
## # … with 3,312 more rows
```
…
--

```r
left_join(flights, planes) %>%
  select(year, month, day, dep_time, arr_time, carrier, flight, tailnum, type, model)
```

```
## Joining, by = c("year", "tailnum")
```

```
## # A tibble: 336,776 x 10
##     year month   day dep_time arr_time carrier flight tailnum type  model
##    <int> <int> <int>    <int>    <int> <chr>    <int> <chr>   <chr> <chr>
##  1  2013     1     1      517      830 UA        1545 N14228  <NA>  <NA> 
##  2  2013     1     1      533      850 UA        1714 N24211  <NA>  <NA> 
##  3  2013     1     1      542      923 AA        1141 N619AA  <NA>  <NA> 
##  4  2013     1     1      544     1004 B6         725 N804JB  <NA>  <NA> 
##  5  2013     1     1      554      812 DL         461 N668DN  <NA>  <NA> 
##  6  2013     1     1      554      740 UA        1696 N39463  <NA>  <NA> 
##  7  2013     1     1      555      913 B6         507 N516JB  <NA>  <NA> 
##  8  2013     1     1      557      709 EV        5708 N829AS  <NA>  <NA> 
##  9  2013     1     1      557      838 B6          79 N593JB  <NA>  <NA> 
## 10  2013     1     1      558      753 AA         301 N3ALAA  <NA>  <NA> 
## # … with 336,766 more rows
```
…
